Extract Samples From a dynamitefit Object as a Data Frame — as.data.frame.dynamitefit • dynamite
…
    Examples

data.table::setDTthreads(1) # For CRAN
as.data.frame(
  gaussian_example_fit,
  responses = "y",
  types = "beta"
)
#> # A tibble: 200 × 10
#>    parameter value  time category group response type  .draw .iteration .chain
#>    <chr>     <dbl> <int> <chr>    <int> <chr>    <chr> <int>      <int>  <int>
#>  1 beta_y_z   1.96    NA NA          NA y        beta      1          1      1
#>  2 beta_y_z   1.97    NA NA          NA y        beta      2          2      1
#>  3 beta_y_z   1.99    NA NA          NA y        beta      3          3      1
#>  4 beta_y_z   1.96    NA NA          NA y        beta      4          4      1
#>  5 beta_y_z   1.97    NA NA          NA y        beta      5          5      1
#>  6 beta_y_z   1.98    NA NA          NA y        beta      6          6      1
#>  7 beta_y_z   1.95    NA NA          NA y        beta      7          7      1
#>  8 beta_y_z   1.97    NA NA          NA y        beta      8          8      1
#>  9 beta_y_z   1.99    NA NA          NA y        beta      9          9      1
#> 10 beta_y_z   1.98    NA NA          NA y        beta     10         10      1
#> # ℹ 190 more rows
…
# Time-varying coefficients "delta"
as.data.frame(
  gaussian_example_fit,
  responses = "y",
  types = "delta",
  summary = TRUE
)
#> # A tibble: 60 × 10
#>    parameter   mean      sd     q5    q95  time group category response type 
#>    <chr>      <dbl>   <dbl>  <dbl>  <dbl> <int> <int> <chr>    <chr>    <chr>
#>  1 delta_y_x NA     NA      NA     NA         1    NA NA       y        delta
#>  2 delta_y_x -0.160  0.0292 -0.208 -0.111     2    NA NA       y        delta
#>  3 delta_y_x -0.909  0.0330 -0.969 -0.855     3    NA NA       y        delta
#>  4 delta_y_x -0.885  0.0243 -0.928 -0.846     4    NA NA       y        delta
#>  5 delta_y_x -0.915  0.0218 -0.952 -0.886     5    NA NA       y        delta
#>  6 delta_y_x -1.06   0.0205 -1.10  -1.03      6    NA NA       y        delta
#>  7 delta_y_x -1.14   0.0237 -1.18  -1.11      7    NA NA       y        delta
#>  8 delta_y_x -0.997  0.0220 -1.03  -0.961     8    NA NA       y        delta
#>  9 delta_y_x -0.904  0.0246 -0.941 -0.864     9    NA NA       y        delta
#> 10 delta_y_x -1.01   0.0239 -1.05  -0.971    10    NA NA       y        delta
#> # ℹ 50 more rows
…
