Convert dynamite Output to draws_df Format — as_draws_df.dynamitefit • dynamite
…
# Compute MCMC diagnostics using the posterior package
posterior::summarise_draws(as_draws(gaussian_example_fit))
#> # A tibble: 143 × 10
#>    variable      mean median     sd    mad      q5   q95  rhat ess_bulk ess_tail
#>    <chr>        <dbl>  <dbl>  <dbl>  <dbl>   <dbl> <dbl> <dbl>    <dbl>    <dbl>
#>  1 alpha_y[2]  0.0590 0.0606 0.0293 0.0280 0.00900 0.106 0.995     235.    185. 
#>  2 alpha_y[3]  0.0931 0.0928 0.0434 0.0475 0.0285  0.161 1.00      172.    155. 
#>  3 alpha_y[4]  0.164  0.161  0.0367 0.0393 0.110   0.223 0.995     236.    178. 
#>  4 alpha_y[5]  0.259  0.259  0.0378 0.0408 0.196   0.322 1.01      262.    231. 
#>  5 alpha_y[6]  0.298  0.295  0.0351 0.0320 0.244   0.358 1.01      257.    226. 
#>  6 alpha_y[7]  0.328  0.326  0.0356 0.0322 0.270   0.386 1.00      186.    148. 
#>  7 alpha_y[8]  0.419  0.418  0.0340 0.0339 0.362   0.473 0.993     175.    228. 
#>  8 alpha_y[9]  0.455  0.451  0.0411 0.0470 0.388   0.525 0.996     188.    162. 
#>  9 alpha_y[10] 0.410  0.416  0.0445 0.0452 0.335   0.478 0.998     195.     53.8
#> 10 alpha_y[11] 0.400  0.403  0.0401 0.0390 0.339   0.469 1.00      198.    186. 
#> # ℹ 133 more rows
…
